﻿# Wavefront OBJ file automatically generated by Tiled2Unity

# Vertices (Count = 221)
v 0 -64 0
v -64 -64 0
v -64 0 0
v 0 0 0
v -128 -64 0
v -128 0 0
v -192 -64 0
v -192 0 0
v -256 -64 0
v -256 0 0
v -320 -64 0
v -320 0 0
v -384 -64 0
v -384 0 0
v -448 -64 0
v -448 0 0
v -512 -64 0
v -512 0 0
v -576 -64 0
v -576 0 0
v -640 -64 0
v -640 0 0
v -704 -64 0
v -704 0 0
v -768 -64 0
v -768 0 0
v 0 -128 0
v -64 -128 0
v -128 -128 0
v -192 -128 0
v -256 -128 0
v -320 -128 0
v -384 -128 0
v -448 -128 0
v -512 -128 0
v -576 -128 0
v -640 -128 0
v -704 -128 0
v -768 -128 0
v 0 -192 0
v -64 -192 0
v -128 -192 0
v -192 -192 0
v -256 -192 0
v -320 -192 0
v -384 -192 0
v -448 -192 0
v -512 -192 0
v -576 -192 0
v -640 -192 0
v -704 -192 0
v -768 -192 0
v 0 -256 0
v -64 -256 0
v -128 -256 0
v -192 -256 0
v -256 -256 0
v -320 -256 0
v -384 -256 0
v -448 -256 0
v -512 -256 0
v -576 -256 0
v -640 -256 0
v -704 -256 0
v -768 -256 0
v 0 -320 0
v -64 -320 0
v -128 -320 0
v -192 -320 0
v -256 -320 0
v -320 -320 0
v -384 -320 0
v -448 -320 0
v -512 -320 0
v -576 -320 0
v -640 -320 0
v -704 -320 0
v -768 -320 0
v 0 -384 0
v -64 -384 0
v -128 -384 0
v -192 -384 0
v -256 -384 0
v -320 -384 0
v -384 -384 0
v -448 -384 0
v -512 -384 0
v -576 -384 0
v -640 -384 0
v -704 -384 0
v -768 -384 0
v 0 -448 0
v -64 -448 0
v -128 -448 0
v -192 -448 0
v -256 -448 0
v -320 -448 0
v -384 -448 0
v -448 -448 0
v -512 -448 0
v -576 -448 0
v -640 -448 0
v -704 -448 0
v -768 -448 0
v 0 -512 0
v -64 -512 0
v -128 -512 0
v -192 -512 0
v -256 -512 0
v -320 -512 0
v -384 -512 0
v -448 -512 0
v -512 -512 0
v -576 -512 0
v -640 -512 0
v -704 -512 0
v -768 -512 0
v 0 -576 0
v -64 -576 0
v -128 -576 0
v -192 -576 0
v -256 -576 0
v -320 -576 0
v -384 -576 0
v -448 -576 0
v -512 -576 0
v -576 -576 0
v -640 -576 0
v -704 -576 0
v -768 -576 0
v 0 -640 0
v -64 -640 0
v -128 -640 0
v -192 -640 0
v -256 -640 0
v -320 -640 0
v -384 -640 0
v -448 -640 0
v -512 -640 0
v -576 -640 0
v -640 -640 0
v -704 -640 0
v -768 -640 0
v 0 -704 0
v -64 -704 0
v -128 -704 0
v -192 -704 0
v -256 -704 0
v -320 -704 0
v -384 -704 0
v -448 -704 0
v -512 -704 0
v -576 -704 0
v -640 -704 0
v -704 -704 0
v -768 -704 0
v 0 -768 0
v -64 -768 0
v -128 -768 0
v -192 -768 0
v -256 -768 0
v -320 -768 0
v -384 -768 0
v -448 -768 0
v -512 -768 0
v -576 -768 0
v -640 -768 0
v -704 -768 0
v -768 -768 0
v 0 -832 0
v -64 -832 0
v -128 -832 0
v -192 -832 0
v -256 -832 0
v -320 -832 0
v -384 -832 0
v -448 -832 0
v -512 -832 0
v -576 -832 0
v -640 -832 0
v -704 -832 0
v -768 -832 0
v 0 -896 0
v -64 -896 0
v -128 -896 0
v -192 -896 0
v -256 -896 0
v -320 -896 0
v -384 -896 0
v -448 -896 0
v -512 -896 0
v -576 -896 0
v -640 -896 0
v -704 -896 0
v -768 -896 0
v 0 -960 0
v -64 -960 0
v -128 -960 0
v -192 -960 0
v -256 -960 0
v -320 -960 0
v -384 -960 0
v -448 -960 0
v -512 -960 0
v -576 -960 0
v -640 -960 0
v -704 -960 0
v -768 -960 0
v 0 -1024 0
v -64 -1024 0
v -128 -1024 0
v -192 -1024 0
v -256 -1024 0
v -320 -1024 0
v -384 -1024 0
v -448 -1024 0
v -512 -1024 0
v -576 -1024 0
v -640 -1024 0
v -704 -1024 0
v -768 -1024 0

# Texture Coorindates (Count = 56)
vt 0.3334554 0.0001220703
vt 0.4998779 0.0001220703
vt 0.4998779 0.1665446
vt 0.3334554 0.1665446
vt 0.1667887 0.0001220703
vt 0.3332113 0.0001220703
vt 0.3332113 0.1665446
vt 0.1667887 0.1665446
vt 0.3334554 0.3334554
vt 0.4998779 0.3334554
vt 0.4998779 0.4998779
vt 0.3334554 0.4998779
vt 0.1667887 0.3334554
vt 0.3332113 0.3334554
vt 0.3332113 0.4998779
vt 0.1667887 0.4998779
vt 0.5001221 0.3334554
vt 0.6665446 0.3334554
vt 0.6665446 0.4998779
vt 0.5001221 0.4998779
vt 0.0001220703 0.3334554
vt 0.1665446 0.3334554
vt 0.1665446 0.4998779
vt 0.0001220703 0.4998779
vt 0.3334554 0.1667887
vt 0.4998779 0.1667887
vt 0.4998779 0.3332113
vt 0.3334554 0.3332113
vt 0.5001221 0.1667887
vt 0.6665446 0.1667887
vt 0.6665446 0.3332113
vt 0.5001221 0.3332113
vt 0.0001220703 0.1667887
vt 0.1665446 0.1667887
vt 0.1665446 0.3332113
vt 0.0001220703 0.3332113
vt 0.1667887 0.1667887
vt 0.3332113 0.1667887
vt 0.3332113 0.3332113
vt 0.1667887 0.3332113
vt 0.0001220703 0.5001221
vt 0.1665446 0.5001221
vt 0.1665446 0.6665446
vt 0.0001220703 0.6665446
vt 0.3334554 0.5001221
vt 0.4998779 0.5001221
vt 0.4998779 0.6665446
vt 0.3334554 0.6665446
vt 0.1667887 0.5001221
vt 0.3332113 0.5001221
vt 0.3332113 0.6665446
vt 0.1667887 0.6665446
vt 0.5001221 0.5001221
vt 0.6665446 0.5001221
vt 0.6665446 0.6665446
vt 0.5001221 0.6665446

# Normal
vn 0 0 -1

# Groups (Count = 2)
g mesh_[00]_[00]
f  1/1/1  2/2/1  3/3/1  4/4/1 
f  2/5/1  5/6/1  6/7/1  3/8/1 
f  5/1/1  7/2/1  8/3/1  6/4/1 
f  7/5/1  9/6/1  10/7/1  8/8/1 
f  9/5/1  11/6/1  12/7/1  10/8/1 
f  11/5/1  13/6/1  14/7/1  12/8/1 
f  13/1/1  15/2/1  16/3/1  14/4/1 
f  15/1/1  17/2/1  18/3/1  16/4/1 
f  17/5/1  19/6/1  20/7/1  18/8/1 
f  19/1/1  21/2/1  22/3/1  20/4/1 
f  21/5/1  23/6/1  24/7/1  22/8/1 
f  23/1/1  25/2/1  26/3/1  24/4/1 
f  27/1/1  28/2/1  2/3/1  1/4/1 
f  28/1/1  29/2/1  5/3/1  2/4/1 
f  29/1/1  30/2/1  7/3/1  5/4/1 
f  30/5/1  31/6/1  9/7/1  7/8/1 
f  31/1/1  32/2/1  11/3/1  9/4/1 
f  32/5/1  33/6/1  13/7/1  11/8/1 
f  33/1/1  34/2/1  15/3/1  13/4/1 
f  34/5/1  35/6/1  17/7/1  15/8/1 
f  35/1/1  36/2/1  19/3/1  17/4/1 
f  36/5/1  37/6/1  21/7/1  19/8/1 
f  37/1/1  38/2/1  23/3/1  21/4/1 
f  38/5/1  39/6/1  25/7/1  23/8/1 
f  40/5/1  41/6/1  28/7/1  27/8/1 
f  41/5/1  42/6/1  29/7/1  28/8/1 
f  42/5/1  43/6/1  30/7/1  29/8/1 
f  43/1/1  44/2/1  31/3/1  30/4/1 
f  44/5/1  45/6/1  32/7/1  31/8/1 
f  45/5/1  46/6/1  33/7/1  32/8/1 
f  46/5/1  47/6/1  34/7/1  33/8/1 
f  47/1/1  48/2/1  35/3/1  34/4/1 
f  48/1/1  49/2/1  36/3/1  35/4/1 
f  49/1/1  50/2/1  37/3/1  36/4/1 
f  50/1/1  51/2/1  38/3/1  37/4/1 
f  51/1/1  52/2/1  39/3/1  38/4/1 
f  53/5/1  54/6/1  41/7/1  40/8/1 
f  54/5/1  55/6/1  42/7/1  41/8/1 
f  55/5/1  56/6/1  43/7/1  42/8/1 
f  56/5/1  57/6/1  44/7/1  43/8/1 
f  57/5/1  58/6/1  45/7/1  44/8/1 
f  58/1/1  59/2/1  46/3/1  45/4/1 
f  59/5/1  60/6/1  47/7/1  46/8/1 
f  60/1/1  61/2/1  48/3/1  47/4/1 
f  61/1/1  62/2/1  49/3/1  48/4/1 
f  62/1/1  63/2/1  50/3/1  49/4/1 
f  63/1/1  64/2/1  51/3/1  50/4/1 
f  64/5/1  65/6/1  52/7/1  51/8/1 
f  66/1/1  67/2/1  54/3/1  53/4/1 
f  67/5/1  68/6/1  55/7/1  54/8/1 
f  68/5/1  69/6/1  56/7/1  55/8/1 
f  69/1/1  70/2/1  57/3/1  56/4/1 
f  70/1/1  71/2/1  58/3/1  57/4/1 
f  71/1/1  72/2/1  59/3/1  58/4/1 
f  72/5/1  73/6/1  60/7/1  59/8/1 
f  73/5/1  74/6/1  61/7/1  60/8/1 
f  74/5/1  75/6/1  62/7/1  61/8/1 
f  75/1/1  76/2/1  63/3/1  62/4/1 
f  76/1/1  77/2/1  64/3/1  63/4/1 
f  77/5/1  78/6/1  65/7/1  64/8/1 
f  79/5/1  80/6/1  67/7/1  66/8/1 
f  80/1/1  81/2/1  68/3/1  67/4/1 
f  81/1/1  82/2/1  69/3/1  68/4/1 
f  82/5/1  83/6/1  70/7/1  69/8/1 
f  83/5/1  84/6/1  71/7/1  70/8/1 
f  84/1/1  85/2/1  72/3/1  71/4/1 
f  85/1/1  86/2/1  73/3/1  72/4/1 
f  86/5/1  87/6/1  74/7/1  73/8/1 
f  87/5/1  88/6/1  75/7/1  74/8/1 
f  88/1/1  89/2/1  76/3/1  75/4/1 
f  89/5/1  90/6/1  77/7/1  76/8/1 
f  90/1/1  91/2/1  78/3/1  77/4/1 
f  92/5/1  93/6/1  80/7/1  79/8/1 
f  93/5/1  94/6/1  81/7/1  80/8/1 
f  94/1/1  95/2/1  82/3/1  81/4/1 
f  95/1/1  96/2/1  83/3/1  82/4/1 
f  96/5/1  97/6/1  84/7/1  83/8/1 
f  97/1/1  98/2/1  85/3/1  84/4/1 
f  98/5/1  99/6/1  86/7/1  85/8/1 
f  99/1/1  100/2/1  87/3/1  86/4/1 
f  100/5/1  101/6/1  88/7/1  87/8/1 
f  101/1/1  102/2/1  89/3/1  88/4/1 
f  102/1/1  103/2/1  90/3/1  89/4/1 
f  103/1/1  104/2/1  91/3/1  90/4/1 
f  105/1/1  106/2/1  93/3/1  92/4/1 
f  106/5/1  107/6/1  94/7/1  93/8/1 
f  107/1/1  108/2/1  95/3/1  94/4/1 
f  108/1/1  109/2/1  96/3/1  95/4/1 
f  109/1/1  110/2/1  97/3/1  96/4/1 
f  110/1/1  111/2/1  98/3/1  97/4/1 
f  111/5/1  112/6/1  99/7/1  98/8/1 
f  112/1/1  113/2/1  100/3/1  99/4/1 
f  113/1/1  114/2/1  101/3/1  100/4/1 
f  114/1/1  115/2/1  102/3/1  101/4/1 
f  115/1/1  116/2/1  103/3/1  102/4/1 
f  116/1/1  117/2/1  104/3/1  103/4/1 
f  118/1/1  119/2/1  106/3/1  105/4/1 
f  119/5/1  120/6/1  107/7/1  106/8/1 
f  120/1/1  121/2/1  108/3/1  107/4/1 
f  121/1/1  122/2/1  109/3/1  108/4/1 
f  122/5/1  123/6/1  110/7/1  109/8/1 
f  123/5/1  124/6/1  111/7/1  110/8/1 
f  124/5/1  125/6/1  112/7/1  111/8/1 
f  125/1/1  126/2/1  113/3/1  112/4/1 
f  126/5/1  127/6/1  114/7/1  113/8/1 
f  127/1/1  128/2/1  115/3/1  114/4/1 
f  128/5/1  129/6/1  116/7/1  115/8/1 
f  129/5/1  130/6/1  117/7/1  116/8/1 
f  131/1/1  132/2/1  119/3/1  118/4/1 
f  132/1/1  133/2/1  120/3/1  119/4/1 
f  133/5/1  134/6/1  121/7/1  120/8/1 
f  134/5/1  135/6/1  122/7/1  121/8/1 
f  135/5/1  136/6/1  123/7/1  122/8/1 
f  136/1/1  137/2/1  124/3/1  123/4/1 
f  137/5/1  138/6/1  125/7/1  124/8/1 
f  138/1/1  139/2/1  126/3/1  125/4/1 
f  139/5/1  140/6/1  127/7/1  126/8/1 
f  140/5/1  141/6/1  128/7/1  127/8/1 
f  141/5/1  142/6/1  129/7/1  128/8/1 
f  142/1/1  143/2/1  130/3/1  129/4/1 
f  144/5/1  145/6/1  132/7/1  131/8/1 
f  145/1/1  146/2/1  133/3/1  132/4/1 
f  146/1/1  147/2/1  134/3/1  133/4/1 
f  147/1/1  148/2/1  135/3/1  134/4/1 
f  148/1/1  149/2/1  136/3/1  135/4/1 
f  149/1/1  150/2/1  137/3/1  136/4/1 
f  150/5/1  151/6/1  138/7/1  137/8/1 
f  151/5/1  152/6/1  139/7/1  138/8/1 
f  152/1/1  153/2/1  140/3/1  139/4/1 
f  153/5/1  154/6/1  141/7/1  140/8/1 
f  154/5/1  155/6/1  142/7/1  141/8/1 
f  155/1/1  156/2/1  143/3/1  142/4/1 
f  157/1/1  158/2/1  145/3/1  144/4/1 
f  158/5/1  159/6/1  146/7/1  145/8/1 
f  159/5/1  160/6/1  147/7/1  146/8/1 
f  160/1/1  161/2/1  148/3/1  147/4/1 
f  161/1/1  162/2/1  149/3/1  148/4/1 
f  162/1/1  163/2/1  150/3/1  149/4/1 
f  163/5/1  164/6/1  151/7/1  150/8/1 
f  164/1/1  165/2/1  152/3/1  151/4/1 
f  165/5/1  166/6/1  153/7/1  152/8/1 
f  166/5/1  167/6/1  154/7/1  153/8/1 
f  167/5/1  168/6/1  155/7/1  154/8/1 
f  168/5/1  169/6/1  156/7/1  155/8/1 
f  170/1/1  171/2/1  158/3/1  157/4/1 
f  171/1/1  172/2/1  159/3/1  158/4/1 
f  172/5/1  173/6/1  160/7/1  159/8/1 
f  173/1/1  174/2/1  161/3/1  160/4/1 
f  174/1/1  175/2/1  162/3/1  161/4/1 
f  175/1/1  176/2/1  163/3/1  162/4/1 
f  176/5/1  177/6/1  164/7/1  163/8/1 
f  177/1/1  178/2/1  165/3/1  164/4/1 
f  178/1/1  179/2/1  166/3/1  165/4/1 
f  179/1/1  180/2/1  167/3/1  166/4/1 
f  180/5/1  181/6/1  168/7/1  167/8/1 
f  181/1/1  182/2/1  169/3/1  168/4/1 
f  183/1/1  184/2/1  171/3/1  170/4/1 
f  184/5/1  185/6/1  172/7/1  171/8/1 
f  185/1/1  186/2/1  173/3/1  172/4/1 
f  186/1/1  187/2/1  174/3/1  173/4/1 
f  187/5/1  188/6/1  175/7/1  174/8/1 
f  188/5/1  189/6/1  176/7/1  175/8/1 
f  189/5/1  190/6/1  177/7/1  176/8/1 
f  190/5/1  191/6/1  178/7/1  177/8/1 
f  191/1/1  192/2/1  179/3/1  178/4/1 
f  192/5/1  193/6/1  180/7/1  179/8/1 
f  193/1/1  194/2/1  181/3/1  180/4/1 
f  194/1/1  195/2/1  182/3/1  181/4/1 
f  196/1/1  197/2/1  184/3/1  183/4/1 
f  197/1/1  198/2/1  185/3/1  184/4/1 
f  198/5/1  199/6/1  186/7/1  185/8/1 
f  199/1/1  200/2/1  187/3/1  186/4/1 
f  200/1/1  201/2/1  188/3/1  187/4/1 
f  201/1/1  202/2/1  189/3/1  188/4/1 
f  202/1/1  203/2/1  190/3/1  189/4/1 
f  203/5/1  204/6/1  191/7/1  190/8/1 
f  204/1/1  205/2/1  192/3/1  191/4/1 
f  205/5/1  206/6/1  193/7/1  192/8/1 
f  206/5/1  207/6/1  194/7/1  193/8/1 
f  207/5/1  208/6/1  195/7/1  194/8/1 
f  209/1/1  210/2/1  197/3/1  196/4/1 
f  210/1/1  211/2/1  198/3/1  197/4/1 
f  211/1/1  212/2/1  199/3/1  198/4/1 
f  212/1/1  213/2/1  200/3/1  199/4/1 
f  213/5/1  214/6/1  201/7/1  200/8/1 
f  214/5/1  215/6/1  202/7/1  201/8/1 
f  215/1/1  216/2/1  203/3/1  202/4/1 
f  216/1/1  217/2/1  204/3/1  203/4/1 
f  217/5/1  218/6/1  205/7/1  204/8/1 
f  218/1/1  219/2/1  206/3/1  205/4/1 
f  219/5/1  220/6/1  207/7/1  206/8/1 
f  220/1/1  221/2/1  208/3/1  207/4/1 
g mesh_[01]_[00]
f  1/9/1  2/10/1  3/11/1  4/12/1 
f  2/9/1  5/10/1  6/11/1  3/12/1 
f  5/9/1  7/10/1  8/11/1  6/12/1 
f  7/13/1  9/14/1  10/15/1  8/16/1 
f  9/13/1  11/14/1  12/15/1  10/16/1 
f  11/9/1  13/10/1  14/11/1  12/12/1 
f  13/17/1  15/18/1  16/19/1  14/20/1 
f  17/21/1  19/22/1  20/23/1  18/24/1 
f  19/13/1  21/14/1  22/15/1  20/16/1 
f  21/9/1  23/10/1  24/11/1  22/12/1 
f  23/13/1  25/14/1  26/15/1  24/16/1 
f  27/13/1  28/14/1  2/15/1  1/16/1 
f  28/13/1  29/14/1  5/15/1  2/16/1 
f  29/9/1  30/10/1  7/11/1  5/12/1 
f  30/9/1  31/10/1  9/11/1  7/12/1 
f  31/25/1  32/26/1  11/27/1  9/28/1 
f  32/25/1  33/26/1  13/27/1  11/28/1 
f  33/29/1  34/30/1  15/31/1  13/32/1 
f  35/33/1  36/34/1  19/35/1  17/36/1 
f  36/25/1  37/26/1  21/27/1  19/28/1 
f  37/13/1  38/14/1  23/15/1  21/16/1 
f  38/13/1  39/14/1  25/15/1  23/16/1 
f  40/9/1  41/10/1  28/11/1  27/12/1 
f  41/9/1  42/10/1  29/11/1  28/12/1 
f  42/37/1  43/38/1  30/39/1  29/40/1 
f  43/29/1  44/30/1  31/31/1  30/32/1 
f  50/33/1  51/34/1  38/35/1  37/36/1 
f  51/25/1  52/26/1  39/27/1  38/28/1 
f  53/37/1  54/38/1  41/39/1  40/40/1 
f  54/29/1  55/30/1  42/31/1  41/32/1 
f  76/41/1  77/42/1  64/43/1  63/44/1 
f  77/45/1  78/46/1  65/47/1  64/48/1 
f  79/45/1  80/46/1  67/47/1  66/48/1 
f  80/49/1  81/50/1  68/51/1  67/52/1 
f  81/45/1  82/46/1  69/47/1  68/48/1 
f  82/53/1  83/54/1  70/55/1  69/56/1 
f  88/41/1  89/42/1  76/43/1  75/44/1 
f  89/9/1  90/10/1  77/11/1  76/12/1 
f  90/9/1  91/10/1  78/11/1  77/12/1 
f  92/13/1  93/14/1  80/15/1  79/16/1 
f  93/13/1  94/14/1  81/15/1  80/16/1 
f  94/9/1  95/10/1  82/11/1  81/12/1 
f  95/9/1  96/10/1  83/11/1  82/12/1 
f  96/53/1  97/54/1  84/55/1  83/56/1 
f  101/21/1  102/22/1  89/23/1  88/24/1 
f  102/13/1  103/14/1  90/15/1  89/16/1 
f  103/13/1  104/14/1  91/15/1  90/16/1 
f  105/13/1  106/14/1  93/15/1  92/16/1 
f  106/9/1  107/10/1  94/11/1  93/12/1 
f  107/13/1  108/14/1  95/15/1  94/16/1 
f  108/9/1  109/10/1  96/11/1  95/12/1 
f  109/17/1  110/18/1  97/19/1  96/20/1 
f  114/21/1  115/22/1  102/23/1  101/24/1 
f  115/13/1  116/14/1  103/15/1  102/16/1 
f  116/13/1  117/14/1  104/15/1  103/16/1 
f  118/9/1  119/10/1  106/11/1  105/12/1 
f  119/9/1  120/10/1  107/11/1  106/12/1 
f  120/13/1  121/14/1  108/15/1  107/16/1 
f  121/9/1  122/10/1  109/11/1  108/12/1 
f  122/13/1  123/14/1  110/15/1  109/16/1 
f  123/53/1  124/54/1  111/55/1  110/56/1 
f  127/33/1  128/34/1  115/35/1  114/36/1 
f  128/25/1  129/26/1  116/27/1  115/28/1 
f  129/13/1  130/14/1  117/15/1  116/16/1 
f  131/9/1  132/10/1  119/11/1  118/12/1 
f  132/9/1  133/10/1  120/11/1  119/12/1 
f  133/13/1  134/14/1  121/15/1  120/16/1 
f  134/9/1  135/10/1  122/11/1  121/12/1 
f  135/9/1  136/10/1  123/11/1  122/12/1 
f  136/29/1  137/30/1  124/31/1  123/32/1 
f  142/33/1  143/34/1  130/35/1  129/36/1 
f  144/13/1  145/14/1  132/15/1  131/16/1 
f  145/9/1  146/10/1  133/11/1  132/12/1 
f  146/13/1  147/14/1  134/15/1  133/16/1 
f  147/13/1  148/14/1  135/15/1  134/16/1 
f  148/17/1  149/18/1  136/19/1  135/20/1 
f  157/9/1  158/10/1  145/11/1  144/12/1 
f  158/9/1  159/10/1  146/11/1  145/12/1 
f  159/13/1  160/14/1  147/15/1  146/16/1 
f  160/9/1  161/10/1  148/11/1  147/12/1 
f  161/17/1  162/18/1  149/19/1  148/20/1 
f  166/41/1  167/42/1  154/43/1  153/44/1 
f  167/49/1  168/50/1  155/51/1  154/52/1 
f  168/45/1  169/46/1  156/47/1  155/48/1 
f  170/9/1  171/10/1  158/11/1  157/12/1 
f  171/13/1  172/14/1  159/15/1  158/16/1 
f  172/9/1  173/10/1  160/11/1  159/12/1 
f  173/13/1  174/14/1  161/15/1  160/16/1 
f  174/9/1  175/10/1  162/11/1  161/12/1 
f  175/53/1  176/54/1  163/55/1  162/56/1 
f  179/21/1  180/22/1  167/23/1  166/24/1 
f  180/13/1  181/14/1  168/15/1  167/16/1 
f  181/13/1  182/14/1  169/15/1  168/16/1 
f  183/9/1  184/10/1  171/11/1  170/12/1 
f  184/9/1  185/10/1  172/11/1  171/12/1 
f  185/13/1  186/14/1  173/15/1  172/16/1 
f  186/9/1  187/10/1  174/11/1  173/12/1 
f  187/9/1  188/10/1  175/11/1  174/12/1 
f  188/29/1  189/30/1  176/31/1  175/32/1 
f  192/21/1  193/22/1  180/23/1  179/24/1 
f  193/9/1  194/10/1  181/11/1  180/12/1 
f  194/13/1  195/14/1  182/15/1  181/16/1 
f  196/9/1  197/10/1  184/11/1  183/12/1 
f  197/9/1  198/10/1  185/11/1  184/12/1 
f  198/13/1  199/14/1  186/15/1  185/16/1 
f  199/13/1  200/14/1  187/15/1  186/16/1 
f  200/17/1  201/18/1  188/19/1  187/20/1 
f  205/21/1  206/22/1  193/23/1  192/24/1 
f  206/13/1  207/14/1  194/15/1  193/16/1 
f  207/13/1  208/14/1  195/15/1  194/16/1 
f  209/13/1  210/14/1  197/15/1  196/16/1 
f  210/13/1  211/14/1  198/15/1  197/16/1 
f  211/13/1  212/14/1  199/15/1  198/16/1 
f  212/13/1  213/14/1  200/15/1  199/16/1 
f  213/9/1  214/10/1  201/11/1  200/12/1 
f  214/49/1  215/50/1  202/51/1  201/52/1 
f  215/49/1  216/50/1  203/51/1  202/52/1 
f  216/49/1  217/50/1  204/51/1  203/52/1 
f  217/49/1  218/50/1  205/51/1  204/52/1 
f  218/9/1  219/10/1  206/11/1  205/12/1 
f  219/13/1  220/14/1  207/15/1  206/16/1 
f  220/9/1  221/10/1  208/11/1  207/12/1 
